I/TA: ***********************
I/TA: ****** VIOLATION ******
I/TA: ***********************
I/TA: RA mismatch, the function is trying to return to 0x41414141 instead of 0x111ac
I/TA: --- call chain: 2 ---
I/TA: 0x000111ac
I/TA: 0x76e32aab
I/TA: ----------------------
I/TA: ---- LAST 1K CALLS ---
I/TA: 0x76e32aab
I/TA: 0x00011170
I/TA: 0x00011068
I/TA: 0x00011074
I/TA: 0x00011080
I/TA: 0x00011088
I/TA: 0x0001118c
I/TA: 0x000111ac
I/TA: 0x000111ac
I/TA: ----------------------
I/TA: Halt
I/TA: switch param: 2
I/TA: [Dump] reading maps of pid: 133
D/TC:? 0 tee_ta_close_session:512 csess 0xc7872048 id 2
D/TC:? 0 tee_ta_close_session:531 Destroy session
I/TA: TA_CloseSessionEntryPoint hash been called
D/TA:  TA_DestroyEntryPoint:109 TA_DestroyEntryPoint has been called
D/TC:? 0 destroy_context:308 Destroy TA ctx (0xc7872008)
