I/TA: ***********************
I/TA: ****** VIOLATION ******
I/TA: ***********************
I/TA: RA mismatch, the function is trying to return to 0x43434343 instead of 0x76dfcaab
I/TA: --- call chain: 1 ---
I/TA: 0x76dfcaab
I/TA: ----------------------
I/TA: ---- LAST 1K CALLS ---
I/TA: 0x76dfcaab
I/TA: 0x0001160c
I/TA: 0x00011510
I/TA: 0x0001151c
I/TA: 0x00011528
I/TA: 0x0001153c
I/TA: 0x00010ed4
I/TA: 0x00010ee0
I/TA: 0x00010eec
I/TA: 0x00011544
I/TA: 0x00011558
I/TA: 0x00010ed4
I/TA: 0x00010ee0
I/TA: 0x00010eec
I/TA: 0x00011560
I/TA: 0x00011574
I/TA: 0x00010ed4
I/TA: 0x00010ee0
I/TA: 0x00010eec
I/TA: 0x0001157c
I/TA: 0x00011590
I/TA: 0x00010ed4
I/TA: 0x00010ee0
I/TA: 0x00010eec
I/TA: 0x00011628
I/TA: 0x000112d8
I/TA: 0x000111f0
I/TA: 0x0001165c
I/TA: 0x0001137c
I/TA: 0x000111f0
I/TA: 0x00011690
I/TA: 0x00011420
I/TA: 0x000111f0
I/TA: 0x0001171c
I/TA: ----------------------
I/TA: Halt
I/TA: switch param: 2
I/TA: [Dump] reading maps of pid: 132
D/TC:? 0 tee_ta_close_session:512 csess 0x7d735048 id 2
D/TC:? 0 tee_ta_close_session:531 Destroy session
I/TA: TA_CloseSessionEntryPoint hash been called
D/TA:  TA_DestroyEntryPoint:109 TA_DestroyEntryPoint has been called
D/TC:? 0 destroy_context:308 Destroy TA ctx (0x7d735008)


main
getFollowers
fetchInteger
getHttpPage (vuln point)
ret
ret
ret
ret main (attack starting point)

