/TA: switch param: 1
I/TA: [Violation] An invalid exit path has been triggered
I/TA: ***********************
I/TA: ****** VIOLATION ******
I/TA: ***********************
I/TA: RA mismatch, the function is trying to return to 0x63 instead of 0x11844
I/TA: --- call chain: 2 ---
I/TA: 0x00011844
I/TA: 0x76e21aab
I/TA: ----------------------
I/TA: ---- LAST 1K CALLS ---
I/TA: 0x76e21aab
I/TA: 0x00011840
I/TA: 0x000111a4
I/TA: 0x00011220
I/TA: 0x0001128c
I/TA: 0x00011300
I/TA: 0x00011374
I/TA: 0x000113f0
I/TA: 0x0001145c
I/TA: 0x000114d0
I/TA: 0x0001153c
I/TA: 0x00011844
I/TA: 0x000115bc
I/TA: 0x000115bc
I/TA: 0x000115bc
I/TA: 0x000115bc
I/TA: 0x000115bc
I/TA: 0x000115bc
I/TA: 0x000115bc
I/TA: 0x000115bc
I/TA: 0x000115bc
I/TA: 0x000115bc
I/TA: 0x000115bc
I/TA: 0x000115bc
I/TA: 0x000115bc
I/TA: 0x000115bc
I/TA: 0x000115bc
I/TA: 0x000115bc
I/TA: 0x000115bc
I/TA: 0x000115bc
I/TA: 0x000115bc
I/TA: 0x000115bc
I/TA: 0x000115bc
I/TA: 0x000115bc
I/TA: 0x000115bc
I/TA: 0x000115bc
I/TA: 0x000115bc
I/TA: 0x000115bc
I/TA: 0x000115bc
I/TA: 0x000115bc
I/TA: 0x000115bc
I/TA: 0x000115bc
I/TA: 0x000115bc
I/TA: 0x000115bc
I/TA: 0x000115bc
I/TA: 0x000115bc
I/TA: 0x000115bc
I/TA: 0x000115bc
I/TA: 0x000115bc
I/TA: 0x000115bc
I/TA: 0x000115bc
I/TA: 0x000115bc
I/TA: 0x000115bc
I/TA: 0x000115bc
I/TA: 0x000115bc
I/TA: 0x000115bc
I/TA: 0x000115bc
I/TA: 0x000115bc
I/TA: 0x000115bc
I/TA: 0x000115bc
I/TA: 0x000115bc
I/TA: 0x000115bc
I/TA: 0x000115bc
I/TA: 0x000115bc
I/TA: 0x000115bc
I/TA: 0x000115bc
I/TA: 0x000115bc
I/TA: 0x000115bc
I/TA: 0x000115bc
I/TA: 0x000115bc
I/TA: 0x000115bc
I/TA: 0x000115bc
I/TA: 0x00011638
I/TA: 0x00011640
I/TA: 0x0001167c
I/TA: 0x000116a0
I/TA: 0x000116bc
I/TA: 0x000116c4
I/TA: 0x0001167c
I/TA: 0x000116a0
I/TA: 0x000116bc
I/TA: 0x000116c4
I/TA: 0x0001167c
I/TA: 0x000116a0
I/TA: 0x000116bc
I/TA: 0x000116c4
I/TA: 0x0001167c
I/TA: 0x000116a0
I/TA: 0x000116bc
I/TA: 0x000116c4
I/TA: 0x0001167c
I/TA: 0x000116a0
I/TA: 0x000116bc
I/TA: 0x000116c4
I/TA: 0x00011774
I/TA: 0x00011790
I/TA: 0x00011774
I/TA: 0x00011790
I/TA: 0x00011774
I/TA: 0x00011790
I/TA: 0x00011774
I/TA: 0x00011790
I/TA: 0x00011774
I/TA: 0x00011790
I/TA: 0x00011774
I/TA: 0x00011790
I/TA: 0x00011774
I/TA: 0x00011790
I/TA: 0x00011774
I/TA: 0x00011790
I/TA: 0x00011774
I/TA: 0x00011790
I/TA: 0x00011774
I/TA: 0x00011790
I/TA: 0x00011774
I/TA: 0x00011790
I/TA: 0x00011774
I/TA: 0x00011790
I/TA: 0x00011774
I/TA: 0x00011790
I/TA: 0x00011774
I/TA: 0x00011790
I/TA: 0x00011774
I/TA: 0x00011790
I/TA: 0x00011774
I/TA: 0x00011790
I/TA: 0x00011774
I/TA: 0x00011790
I/TA: 0x00011774
I/TA: 0x00011790
I/TA: 0x00011774
I/TA: 0x00011790
I/TA: 0x00011774
I/TA: 0x00011790
I/TA: 0x00011774
I/TA: 0x00011790
I/TA: 0x00011774
I/TA: 0x00011790
I/TA: 0x00011774
I/TA: 0x00011790
I/TA: 0x00011774
I/TA: 0x00011790
I/TA: 0x00011774
I/TA: 0x00011790
I/TA: 0x00011774
I/TA: 0x00011790
I/TA: 0x00011774
I/TA: 0x00011790
I/TA: 0x00011774
I/TA: 0x00011790
I/TA: 0x00011774
I/TA: 0x00011790
I/TA: 0x00011774
I/TA: 0x00011790
I/TA: 0x00011774
I/TA: 0x00011790
I/TA: 0x00011774
I/TA: 0x00011790
I/TA: 0x00011774
I/TA: 0x00011790
I/TA: 0x00011774
I/TA: 0x00011790
I/TA: 0x00011774
I/TA: 0x00011790
I/TA: 0x00011774
I/TA: 0x00011790
I/TA: 0x00011774
I/TA: 0x00011790
I/TA: 0x00011774
I/TA: 0x00011790
I/TA: 0x00011774
I/TA: 0x00011790
I/TA: 0x00011774
I/TA: 0x00011790
I/TA: 0x00011774
I/TA: 0x00011790
I/TA: 0x00011774
I/TA: 0x00011790
I/TA: 0x00011774
I/TA: 0x00011790
I/TA: 0x00011774
I/TA: 0x00011790
I/TA: 0x00011774
I/TA: 0x00011790
I/TA: 0x00011774
I/TA: 0x00011790
I/TA: 0x00011774
I/TA: 0x00011790
I/TA: 0x00011774
I/TA: 0x00011790
I/TA: 0x00011774
I/TA: 0x00011790
I/TA: 0x00011774
I/TA: 0x00011790
I/TA: 0x00011774
I/TA: 0x00011790
I/TA: 0x00011774
I/TA: 0x00011790
I/TA: 0x00011774
I/TA: 0x00011790
I/TA: 0x00011774
I/TA: 0x00011790
I/TA: 0x00011774
I/TA: 0x00011790
I/TA: 0x00011774
I/TA: 0x00011790
I/TA: 0x00011774
I/TA: 0x00011790
I/TA: 0x00011774
I/TA: 0x00011790
I/TA: 0x00011774
I/TA: 0x00011790
I/TA: 0x00011774
I/TA: 0x00011790
I/TA: 0x00011774
I/TA: 0x00011790
I/TA: 0x00011774
I/TA: 0x00011790
I/TA: 0x00011774
I/TA: 0x00011790
I/TA: 0x00011774
I/TA: 0x00011790
I/TA: 0x00011774
I/TA: 0x00011790
I/TA: 0x00011774
I/TA: 0x00011790
I/TA: 0x00011774
I/TA: 0x00011790
I/TA: 0x00011774
I/TA: 0x00011790
I/TA: 0x00011774
I/TA: 0x00011790
I/TA: 0x00011774
I/TA: 0x00011790
I/TA: 0x00011774
I/TA: 0x00011790
I/TA: 0x00011774
I/TA: 0x00011790
I/TA: 0x00011774
I/TA: 0x00011790
I/TA: 0x00011774
I/TA: 0x00011790
I/TA: 0x00011774
I/TA: 0x00011790
I/TA: 0x00011774
I/TA: 0x00011790
I/TA: 0x00011774
I/TA: 0x00011790
I/TA: 0x00011774
I/TA: 0x00011790
I/TA: 0x00011774
I/TA: 0x00011790
I/TA: 0x00011774
I/TA: 0x00011790
I/TA: 0x00011774
I/TA: 0x00011790
I/TA: 0x00011774
I/TA: 0x00011790
I/TA: 0x00011774
I/TA: 0x00011790
I/TA: 0x00011774
I/TA: 0x00011790
I/TA: 0x00011774
I/TA: 0x00011790
I/TA: 0x00011774
I/TA: 0x00011790
I/TA: 0x00011774
I/TA: 0x00011790
I/TA: 0x00011774
I/TA: 0x00011790
I/TA: 0x00011774
I/TA: 0x00011790
I/TA: 0x00011774
I/TA: 0x00011790
I/TA: 0x00011774
I/TA: 0x00011790
I/TA: 0x00011774
I/TA: 0x00011790
I/TA: 0x00011774
I/TA: 0x00011790
I/TA: 0x00011774
I/TA: 0x00011790
I/TA: 0x00011774
I/TA: 0x00011790
I/TA: 0x00011774
I/TA: 0x00011790
I/TA: 0x00011774
I/TA: 0x00011790
I/TA: 0x00011774
I/TA: 0x00011790
I/TA: 0x00011774
I/TA: 0x00011790
I/TA: 0x00011774
I/TA: 0x00011790
I/TA: 0x00011774
I/TA: 0x00011790
I/TA: 0x00011774
I/TA: 0x00011790
I/TA: 0x00011774
I/TA: 0x00011790
I/TA: 0x00011774
I/TA: 0x00011790
I/TA: 0x00011774
I/TA: 0x00011790
I/TA: 0x00011774
I/TA: 0x00011790
I/TA: 0x00011774
I/TA: 0x00011790
I/TA: 0x00011774
I/TA: 0x00011790
I/TA: ----------------------
I/TA: Halt
I/TA: switch param: 2
I/TA: [Dump] reading maps of pid: 123
D/TC:? 0 tee_ta_close_session:512 csess 0x9542ca0 id 1
D/TC:? 0 tee_ta_close_session:531 Destroy session
I/TA: TA_CloseSessionEntryPoint hash been called
D/TA:  TA_DestroyEntryPoint:109 TA_DestroyEntryPoint has been called
D/TC:? 0 destroy_context:308 Destroy TA ctx (0x9542c60)
