Program: syringe
I/TA: ***********************
I/TA: ****** VIOLATION ******
I/TA: ***********************
I/TA: RA mismatch, the function is trying to return to 0x39393939 instead of 0x11588
I/TA: --- call chain: 3 ---
I/TA: 0x00011588 loop --> call to readSerial
I/TA: 0x000122e4 main --> call to loop
I/TA: 0x76e63aab loader --> call to main
I/TA: ----------------------
I/TA: ---- LAST 1K CALLS ---
I/TA: 0x76e63aab
I/TA: 0x000122bc
I/TA: 0x00011490
I/TA: 0x00011498
I/TA: 0x000114a8
I/TA: 0x000114b8
I/TA: 0x000114c8
I/TA: 0x000114d8
I/TA: 0x000114e8
I/TA: 0x000114f8
I/TA: 0x00011508
I/TA: 0x00011510
I/TA: 0x000122e4
I/TA: 0x00011588
I/TA: 0x00011944
I/TA: 0x00011950
I/TA: 0x000115c0
I/TA: 0x000115d8
......
I/TA: 0x00011944
I/TA: 0x00011950
I/TA: 0x00011944
I/TA: 0x00011950
I/TA: 0x00011944
I/TA: 0x00011950
I/TA: 0x00011944
I/TA: 0x00011950
I/TA: 0x00011944
I/TA: 0x00011950
I/TA: ----------------------
I/TA: Halt
I/TA: switch param: 2
I/TA: [Dump] reading maps of pid: 129
D/TC:? 0 tee_ta_close_session:512 csess 0x346b9048 id 2
D/TC:? 0 tee_ta_close_session:531 Destroy session
I/TA: TA_CloseSessionEntryPoint hash been called
D/TA:  TA_DestroyEntryPoint:109 TA_DestroyEntryPoint has been called
D/TC:? 0 destroy_context:308 Destroy TA ctx (0x346b9008)


main:
   0x000122e0 <+136>:   bl      0x11558 <loop>
   0x000122e4 <+140>:   b       0x122c4 <main+108>
   
loop:
   0x00011584 <+44>:    bl      0x11918 <readSerial>
   0x00011588 <+48>:    vldr    s0, [r11, #-4]
   
Dal main verso la funzione target trovo 2 BB con operazioni di scrittura (entrambi in readSerial).

